{
    "_id": "580dfe09ac2f08078bcfd8a0",
    "index": 0,
    "guid": "832f8f53-9849-4155-941e-11c7c5091aa1",
    "isActive": false,
    "balance": "$2,845.23",
    "picture": "http://placehold.it/32x32",
    "age": 25,
    "eyeColor": "brown",
    "name": "Katelyn Gilbert",
    "gender": "female",
    "company": "CALCU",
    "email": "katelyngilbert@calcu.com",
    "phone": "+1 (979) 540-3333",
    "address": "341 Seagate Terrace, Sunbury, Delaware, 9638",
    "about": "Ea proident sint in Lorem elit ipsum cupidatat cillum ea nisi eiusmod ea culpa mollit. Lorem dolor sit esse aliquip mollit proident dolor quis adipisicing nisi ad cupidatat consequat. Officia anim dolor cupidatat magna nisi aliqua veniam quis proident anim et ad. Laborum aute irure exercitation adipisicing ad culpa. Ullamco ex qui magna ut cillum aute. Qui tempor anim do voluptate. Tempor labore fugiat laboris eu aute.\r\n",
    "registered": "2014-04-03T06:49:00 -03:00",
    "latitude": -32.386694,
    "longitude": -178.318123,
    "tags": [
      "velit",
      "pariatur",
      "ex",
      "pariatur",
      "incididunt",
      "reprehenderit",
      "eiusmod"
    ],
    "friends": [
      {
        "id": 0,
        "name": "Hampton Stewart"
      },
      {
        "id": 1,
        "name": "Rosetta Peters"
      },
      {
        "id": 2,
        "name": "Diana Fernandez"
      }
    ],
    "greeting": "Hello, Katelyn Gilbert! You have 8 unread messages.",
    "favoriteFruit": "apple"
}
line is added by cao in the first step.
line is added by cao in the 2nd step.
line is added by cao in step 5.
